vhdl work "../vhd/MMIPS_pkg.vhd"
vhdl work "../vhd/RAM_Video_data.vhd"
vhdl work "../vhd/RAM_Video_mem.vhd"
vhdl work "../vhd/clock_gen.vhd"
vhdl work "../vhd/VGA_gene_sync.vhd"
vhdl work "../vhd/VGA_image.vhd"
vhdl work "../vhd/VGA_lecture_memoire.vhd"
vhdl work "../vhd/VGA_image.vhd"